org/acme/geometry/EnvelopeTest.class
org/acme/geometry/TestGeometryFactory.class
org/acme/geometry/PointTest.class
org/acme/geometry/CoordinateTest.class
org/acme/geometry/WktWriterTest.class
org/acme/geometry/LinestringTest.class
